{"_type":"user","_id":"AU2kPKJJ0yh4vjTMVuAC","_index":"tweetapp"}
{"name":"João Bernardo"}
{"_type":"user","_id":"AU2kPKJw0yh4vjTMVuAG","_index":"tweetapp"}
{"name":"João Ribeiro"}
{"_id":"AU2kPKSc0yh4vjTMVuAI","_index":"tweetapp","_type":"user"}
{"name":"Led Zeppelin"}
{"_index":"tweetapp","_id":"AU2kPK-u0yh4vjTMVuAW","_type":"user"}
{"name":"Jimmy Page"}
{"_type":"user","_id":"AU2kPK-30yh4vjTMVuAX","_index":"tweetapp"}
{"name":"Robert Plant"}
{"_index":"tweetapp","_id":"AU2kPK_Y0yh4vjTMVuAZ","_type":"user"}
{"name":"John Bonham"}
{"_index":"tweetapp","_id":"AU2kPLmX0yh4vjTMVuAj","_type":"user"}
{"name":"John Paul Jones"}
{"_type":"tweet","_index":"tweetapp","_id":"AU2kPK170yh4vjTMVuAT","parent":"AU2kPKJJ0yh4vjTMVuAC"}
{"text":"test one two three"}
{"_index":"tweetapp","_id":"AU2kPK-X0yh4vjTMVuAU","_type":"tweet","parent":"AU2kPK_Y0yh4vjTMVuAZ"}
{"text":"test one two three"}
{"_index":"tweetapp","_id":"AU2kPK-l0yh4vjTMVuAV","_type":"tweet","parent":"AU2kPKJJ0yh4vjTMVuAC"}
{"text":"test one two three"}
{"_type":"tweet","_id":"AU2kPKtR0yh4vjTMVuAR","_index":"tweetapp","parent":"AU2kPK_Y0yh4vjTMVuAZ"}
{"text":"test one two three"}
{"_index":"tweetapp","_id":"AU2kPLld0yh4vjTMVuAf","_type":"tweet","parent":"AU2kPLmX0yh4vjTMVuAj"}
{"text":"test one two three"}
{"_id":"AU2kPKJr0yh4vjTMVuAF","_index":"tweetapp","_type":"tweet","parent":"AU2kPKJJ0yh4vjTMVuAC"}
{"text":"test one two three"}
{"_id":"AU2kPKa20yh4vjTMVuAJ","_index":"tweetapp","_type":"tweet","parent":"AU2kPK_Y0yh4vjTMVuAZ"}
{"text":"test one two three"}
{"_type":"tweet","_index":"tweetapp","_id":"AU2kPKbn0yh4vjTMVuAM","parent":"AU2kPLmX0yh4vjTMVuAj"}
{"text":"test one two three"}
{"_id":"AU2kPLAN0yh4vjTMVuAd","_index":"tweetapp","_type":"tweet","parent":"AU2kPKJJ0yh4vjTMVuAC"}
{"text":"test one two three"}
{"_type":"tweet","_id":"AU2kPKbS0yh4vjTMVuAK","_index":"tweetapp","parent":"AU2kPLmX0yh4vjTMVuAj"}
{"text":"test one two three"}
